{
	"version": 1,
	"changelists": [
		{
			"guid": "00000000000000000000000000000000",
			"description": "Default Uncontrolled Changelist",
			"files": [
				"H:/UnrealGames/Plugins/UE5_Plugin_JumpPad/Content/__ExternalActors__/ThirdPerson/Maps/ThirdPersonMap/9/GL/698G9A58JOJABBTY8CNYPJ.uasset",
				"H:/UnrealGames/Plugins/UE5_Plugin_JumpPad/Plugins/JumpPad/Content/BP_JumpPad.uasset"
			]
		}
	]
}